<svg width="237" height="36" viewBox="0 0 237 36" fill="none" xmlns="http://www.w3.org/2000/svg">
<path d="M0.669922 9.15527C0.669922 8.9821 0.818359 8.85221 1.11523 8.76562C1.42448 8.66667 1.79557 8.59245 2.22852 8.54297C2.66146 8.49349 3.11296 8.46257 3.58301 8.4502C4.05306 8.43783 4.46126 8.43164 4.80762 8.43164C5.00553 8.43164 5.29622 8.43783 5.67969 8.4502C6.06315 8.46257 6.47135 8.46875 6.9043 8.46875C7.33724 8.46875 7.74544 8.47493 8.12891 8.4873C8.52474 8.49967 8.84017 8.50586 9.0752 8.50586C9.73079 8.50586 10.238 8.49349 10.5967 8.46875C10.9678 8.44401 11.3203 8.41927 11.6543 8.39453C11.877 8.39453 11.9883 8.50586 11.9883 8.72852C11.9883 9.7181 11.9821 10.8314 11.9697 12.0684C11.9574 13.293 11.9326 14.5547 11.8955 15.8535C11.8584 17.14 11.8089 18.4202 11.7471 19.6943C11.6852 20.9684 11.6048 22.1621 11.5059 23.2754C12.013 22.7682 12.4027 22.4219 12.6748 22.2363C12.9593 22.0508 13.1634 21.958 13.2871 21.958C13.3861 21.958 13.516 22.0879 13.6768 22.3477C13.8499 22.5951 14.0973 23.0589 14.4189 23.7393V8.72852C14.4189 8.58008 14.5736 8.46257 14.8828 8.37598C15.1921 8.27702 15.5632 8.20898 15.9961 8.17188C16.4414 8.13477 16.8929 8.11003 17.3506 8.09766C17.8083 8.08529 18.1917 8.0791 18.501 8.0791C18.7484 8.0791 19.237 8.08529 19.9668 8.09766C20.709 8.11003 21.4635 8.14714 22.2305 8.20898C23.0098 8.25846 23.6963 8.32031 24.29 8.39453C24.8838 8.46875 25.1807 8.58008 25.1807 8.72852V14.4619C25.1807 16.2061 25.1683 17.8451 25.1436 19.3789C25.1188 20.9128 25.0693 22.4404 24.9951 23.9619C24.9209 25.4834 24.8034 27.0729 24.6426 28.7305C24.4941 30.388 24.2962 32.2188 24.0488 34.2227C24.0241 34.3958 23.9066 34.4886 23.6963 34.501C23.1891 34.501 22.583 34.4948 21.8779 34.4824C21.1729 34.4701 20.4307 34.4577 19.6514 34.4453C18.8844 34.4329 18.099 34.402 17.2949 34.3525C16.5033 34.3154 15.7858 34.2721 15.1426 34.2227C14.9447 34.2227 14.8457 34.1113 14.8457 33.8887C14.8457 33.9134 14.8333 33.7959 14.8086 33.5361C14.7839 33.264 14.7591 32.9176 14.7344 32.4971C14.7096 32.0765 14.6787 31.6064 14.6416 31.0869C14.6045 30.5674 14.5736 30.0726 14.5488 29.6025C14.5241 29.1201 14.4932 28.6934 14.4561 28.3223C14.4313 27.9512 14.4189 27.7038 14.4189 27.5801C13.6025 28.4707 13.0645 29.0212 12.8047 29.2314C12.5449 29.4417 12.4027 29.5469 12.3779 29.5469C12.3037 29.5469 12.2109 29.4603 12.0996 29.2871C12.0007 29.1139 11.9017 28.916 11.8027 28.6934C11.7038 28.4583 11.6048 28.2295 11.5059 28.0068C11.4069 27.7718 11.3451 27.6172 11.3203 27.543C11.2956 28.6068 11.2461 29.5964 11.1719 30.5117C11.11 31.4147 11.0173 32.4661 10.8936 33.666C10.8441 33.8639 10.5905 33.9876 10.1328 34.0371C9.67513 34.0866 9.19271 34.1113 8.68555 34.1113C6.99089 34.1113 5.66113 34.1051 4.69629 34.0928C3.73145 34.0804 3.00781 34.0557 2.52539 34.0186C2.05534 33.9814 1.75846 33.932 1.63477 33.8701C1.52344 33.8083 1.46777 33.7279 1.46777 33.6289L0.892578 18.9521C0.79362 16.4906 0.731771 14.4805 0.707031 12.9219C0.682292 11.3633 0.669922 10.1077 0.669922 9.15527Z" fill="#E31E25"/>
<path d="M28.3535 10.0273C28.3535 9.80469 28.5267 9.61296 28.873 9.45215C29.2318 9.27897 29.875 9.13672 30.8027 9.02539C31.7305 8.90169 32.9984 8.80892 34.6064 8.74707C36.2145 8.68522 38.2865 8.6543 40.8223 8.6543H46.2959C46.4938 8.6543 46.5928 8.75326 46.5928 8.95117C46.5928 10.349 46.5557 11.7096 46.4814 13.0332C46.4072 14.3444 46.3083 15.5195 46.1846 16.5586C46.0732 17.5977 45.9434 18.4326 45.7949 19.0635C45.6465 19.6943 45.5042 20.0098 45.3682 20.0098C45.1208 20.0098 44.527 19.9727 43.5869 19.8984C42.6468 19.8242 41.181 19.7871 39.1895 19.7871C39.14 20.2201 39.109 20.6777 39.0967 21.1602C39.0967 21.6426 39.0967 22.1003 39.0967 22.5332C40.111 22.5332 41.1377 22.4837 42.1768 22.3848C43.2158 22.2734 44.026 22.2178 44.6074 22.2178C45.0404 22.2178 45.3311 22.2611 45.4795 22.3477C45.6403 22.4342 45.7207 22.5703 45.7207 22.7559C45.6217 23.3372 45.498 23.8815 45.3496 24.3887C45.2135 24.8958 45.0465 25.4401 44.8486 26.0215C44.7249 26.306 43.5684 26.4421 41.3789 26.4297C41.0202 26.4297 40.6429 26.4297 40.2471 26.4297C39.8636 26.4297 39.4554 26.4173 39.0225 26.3926C38.973 26.7513 38.9359 27.2028 38.9111 27.7471C38.8864 28.2913 38.874 28.8171 38.874 29.3242C39.8141 29.3984 40.7913 29.4355 41.8057 29.4355C42.3376 29.4355 42.8757 29.417 43.4199 29.3799C43.9642 29.3428 44.5023 29.3242 45.0342 29.3242C45.2321 29.3242 45.3311 29.5036 45.3311 29.8623C45.3311 30.7529 45.3187 31.5137 45.2939 32.1445C45.2692 32.7754 45.2197 33.4186 45.1455 34.0742C45.1208 34.1732 44.9909 34.266 44.7559 34.3525C44.5332 34.4515 44.125 34.5381 43.5312 34.6123C42.9375 34.6865 42.1335 34.7422 41.1191 34.7793C40.1048 34.8164 38.7998 34.835 37.2041 34.835C35.7568 34.835 34.5693 34.8288 33.6416 34.8164C32.7262 34.804 32.0026 34.7669 31.4707 34.7051C30.9388 34.6432 30.5615 34.5319 30.3389 34.3711C30.1286 34.2227 30.0111 34.0124 29.9863 33.7402C29.8379 32.7754 29.6895 31.5508 29.541 30.0664C29.4049 28.582 29.2812 27.0049 29.1699 25.335C29.0586 23.665 28.9473 21.9704 28.8359 20.251C28.737 18.5192 28.6504 16.9421 28.5762 15.5195C28.502 14.0846 28.4463 12.8662 28.4092 11.8643C28.3721 10.8623 28.3535 10.25 28.3535 10.0273ZM176.717 12.1797C176.717 12.1055 176.803 11.9941 176.977 11.8457C177.15 11.6973 177.261 11.5983 177.311 11.5488C177.719 11.2148 178.183 10.8747 178.702 10.5283C179.222 10.1696 179.76 9.84798 180.316 9.56348C180.873 9.2666 181.436 9.02539 182.005 8.83984C182.574 8.64193 183.112 8.54297 183.619 8.54297C183.867 8.56771 184.12 8.83366 184.38 9.34082C184.64 9.84798 184.875 10.417 185.085 11.0479C185.308 11.6787 185.481 12.291 185.604 12.8848C185.728 13.4785 185.79 13.8929 185.79 14.1279C185.79 14.2269 185.759 14.3382 185.697 14.4619C185.635 14.5732 185.58 14.6784 185.53 14.7773C184.949 15.6927 184.281 16.5648 183.526 17.3936C182.784 18.21 182.005 19.0202 181.188 19.8242C181.065 19.9479 180.929 20.0592 180.78 20.1582C180.632 20.2448 180.49 20.2881 180.354 20.2881C180.255 20.2881 180.137 20.2448 180.001 20.1582C179.865 20.0592 179.723 19.9541 179.574 19.8428C179.438 19.7314 179.327 19.6077 179.24 19.4717C179.154 19.3232 179.11 19.1872 179.11 19.0635C179.11 18.9893 179.147 18.915 179.222 18.8408C179.803 18.2594 180.224 17.7956 180.483 17.4492C180.756 17.1029 180.892 16.8307 180.892 16.6328C180.892 16.4349 180.762 16.3359 180.502 16.3359C180.354 16.3359 180.205 16.373 180.057 16.4473C179.908 16.5215 179.766 16.6019 179.63 16.6885C179.506 16.7751 179.389 16.8617 179.277 16.9482C179.166 17.0225 179.086 17.0596 179.036 17.0596C178.912 17.0596 178.721 16.8493 178.461 16.4287C178.201 16.0081 177.935 15.5195 177.663 14.9629C177.403 14.4062 177.181 13.862 176.995 13.3301C176.81 12.7982 176.717 12.4147 176.717 12.1797Z" fill="#EF7F1B"/>
<path d="M49.543 23.4424C49.543 22.9352 49.543 22.292 49.543 21.5127C49.543 20.721 49.5492 19.8613 49.5615 18.9336C49.5739 18.0059 49.5863 17.0596 49.5986 16.0947C49.611 15.1175 49.6296 14.1836 49.6543 13.293C49.679 12.4023 49.7038 11.5921 49.7285 10.8623C49.7656 10.1201 49.7965 9.53874 49.8213 9.11816C49.846 8.99447 49.8831 8.82747 49.9326 8.61719C49.9821 8.39453 50.2233 8.25228 50.6562 8.19043C51.4355 8.11621 52.2767 8.06055 53.1797 8.02344C54.0827 7.98633 55.0104 7.96777 55.9629 7.96777C57.9915 7.96777 60.0387 8.02344 62.1045 8.13477C64.1702 8.23372 66.0257 8.32031 67.6709 8.39453C67.8936 8.39453 68.0111 8.49349 68.0234 8.69141C68.0729 9.39648 68.1038 10.0583 68.1162 10.6768C68.1286 11.2829 68.1348 11.9385 68.1348 12.6436C68.1348 13.46 68.1224 14.2887 68.0977 15.1299C68.0729 15.9587 68.0482 16.7751 68.0234 17.5791C68.0234 17.7523 67.9059 17.8451 67.6709 17.8574C67.2874 17.8574 66.7741 17.8574 66.1309 17.8574C65.4876 17.8574 64.8135 17.8574 64.1084 17.8574C63.4157 17.8574 62.7477 17.8636 62.1045 17.876C61.4613 17.8883 60.9479 17.8945 60.5645 17.8945C60.5397 18.0677 60.5212 18.2471 60.5088 18.4326C60.4964 18.6058 60.4902 18.7913 60.4902 18.9893C61.987 19.0635 63.3971 19.249 64.7207 19.5459C66.0566 19.8304 67.2256 20.251 68.2275 20.8076C69.2295 21.3643 70.0212 22.057 70.6025 22.8857C71.1839 23.7145 71.4746 24.7103 71.4746 25.873C71.4746 27.1595 71.2272 28.347 70.7324 29.4355C70.2376 30.5241 69.4583 31.458 68.3945 32.2373C67.3307 33.0042 65.9515 33.6104 64.2568 34.0557C62.5622 34.501 60.5088 34.7236 58.0967 34.7236C56.9834 34.7236 55.9134 34.6927 54.8867 34.6309C53.86 34.569 52.9508 34.4762 52.1592 34.3525C51.3799 34.2412 50.7614 34.1113 50.3037 33.9629C49.846 33.8145 49.6172 33.6475 49.6172 33.4619C49.6172 32.93 49.611 32.2868 49.5986 31.5322C49.5863 30.7653 49.5801 29.9365 49.5801 29.0459C49.5801 28.1429 49.5739 27.209 49.5615 26.2441C49.5492 25.2793 49.543 24.3454 49.543 23.4424ZM60.2305 30.7344C60.3789 30.7839 60.5706 30.8148 60.8057 30.8271C61.0531 30.8395 61.2633 30.8457 61.4365 30.8457C62.1416 30.8457 62.7972 30.6973 63.4033 30.4004C64.0218 30.0911 64.3311 29.6087 64.3311 28.9531C64.3311 28.2728 63.9847 27.7038 63.292 27.2461C62.6117 26.7884 61.6777 26.5596 60.4902 26.5596L60.2305 30.7344Z" fill="#FEED00"/>
<path d="M73.9238 20.585C73.9238 18.7295 74.1836 17.0286 74.7031 15.4824C75.2227 13.9238 75.971 12.5755 76.9482 11.4375C77.9378 10.2871 79.1377 9.3903 80.5479 8.74707C81.958 8.10384 83.5599 7.78223 85.3535 7.78223C87.1471 7.78223 88.7367 8.11621 90.1221 8.78418C91.5075 9.45215 92.6579 10.3613 93.5732 11.5117C94.501 12.6497 95.2061 13.9795 95.6885 15.501C96.1709 17.0225 96.4121 18.6305 96.4121 20.3252C96.4121 22.1807 96.1771 23.9805 95.707 25.7246C95.237 27.4688 94.5319 29.0273 93.5918 30.4004C92.6641 31.7611 91.5075 32.8558 90.1221 33.6846C88.7367 34.501 87.1224 34.9092 85.2793 34.9092C83.5599 34.9092 82.0013 34.5752 80.6035 33.9072C79.2057 33.2393 78.012 32.2868 77.0225 31.0498C76.0452 29.8005 75.2845 28.2913 74.7402 26.5225C74.196 24.7412 73.9238 22.762 73.9238 20.585ZM82.626 23.665C82.626 25.0876 82.861 26.2565 83.3311 27.1719C83.8011 28.0749 84.3887 28.5264 85.0938 28.5264C85.8236 28.5264 86.4173 28.0687 86.875 27.1533C87.3327 26.2256 87.5615 25.0628 87.5615 23.665C87.5615 22.3786 87.376 21.4756 87.0049 20.9561C86.6338 20.4365 86.0462 20.1768 85.2422 20.1768C84.2279 20.1768 83.5352 20.4365 83.1641 20.9561C82.8053 21.4632 82.626 22.3662 82.626 23.665Z" fill="#009746"/>
<path d="M97.7852 34.2227C97.7852 33.9753 97.8532 33.6722 97.9893 33.3135C98.1377 32.9548 98.3109 32.5404 98.5088 32.0703C98.7933 31.4395 99.0345 30.9756 99.2324 30.6787C99.4303 30.3818 99.7087 30.2334 100.067 30.2334C100.191 30.2334 100.352 30.2643 100.55 30.3262C100.76 30.388 100.939 30.4189 101.088 30.4189C101.768 30.4189 102.331 29.8809 102.776 28.8047C103.222 27.7285 103.444 26.3431 103.444 24.6484C103.444 22.6445 103.426 20.9189 103.389 19.4717C103.352 18.012 103.308 16.707 103.259 15.5566C103.209 14.4062 103.166 13.3486 103.129 12.3838C103.092 11.4189 103.073 10.4417 103.073 9.45215C103.073 9.16764 103.117 8.96354 103.203 8.83984C103.29 8.71615 103.488 8.6543 103.797 8.6543C105.59 8.62956 107.502 8.60482 109.53 8.58008C111.274 8.55534 113.26 8.53678 115.486 8.52441C117.725 8.51204 120.045 8.50586 122.444 8.50586C123.558 8.50586 124.652 8.52441 125.729 8.56152C126.817 8.59863 127.85 8.67904 128.827 8.80273C129.05 8.85221 129.198 8.90169 129.272 8.95117C129.359 8.98828 129.402 9.09342 129.402 9.2666C129.402 9.48926 129.396 9.73665 129.384 10.0088C129.371 10.2686 129.359 10.6273 129.347 11.085C129.334 11.5426 129.316 12.1364 129.291 12.8662C129.266 13.5837 129.242 14.499 129.217 15.6123C129.192 16.7256 129.161 18.0739 129.124 19.6572C129.087 21.2406 129.044 23.1331 128.994 25.335C128.945 27.3636 128.901 29.1263 128.864 30.623C128.84 32.1198 128.827 33.2949 128.827 34.1484C128.827 34.4824 128.753 34.6742 128.604 34.7236C128.456 34.7731 128.308 34.7979 128.159 34.7979C127.652 34.8226 127.145 34.835 126.638 34.835C126.131 34.835 125.623 34.835 125.116 34.835C124.201 34.835 123.236 34.8102 122.222 34.7607C121.207 34.7113 120.335 34.6618 119.605 34.6123C119.247 34.5876 119.03 34.4886 118.956 34.3154C118.882 34.1546 118.832 33.8577 118.808 33.4248C118.659 31.3219 118.517 29.0645 118.381 26.6523C118.257 24.2279 118.158 21.8158 118.084 19.416C117.75 19.3913 117.422 19.3727 117.101 19.3604C116.791 19.3356 116.47 19.3232 116.136 19.3232C115.826 19.3232 115.517 19.3356 115.208 19.3604C114.899 19.3727 114.577 19.3913 114.243 19.416C114.045 22.2982 113.773 24.6794 113.427 26.5596C113.08 28.4274 112.678 29.7819 112.221 30.623C111.305 32.293 110.056 33.5299 108.473 34.334C106.902 35.1504 105.151 35.5586 103.222 35.5586C101.341 35.5586 99.9622 35.3916 99.084 35.0576C98.2181 34.736 97.7852 34.4577 97.7852 34.2227Z" fill="#01A0E2"/>
<path d="M132.445 10.0273C132.445 9.80469 132.618 9.61296 132.965 9.45215C133.324 9.27897 133.967 9.13672 134.895 9.02539C135.822 8.90169 137.09 8.80892 138.698 8.74707C140.306 8.68522 142.378 8.6543 144.914 8.6543H150.388C150.586 8.6543 150.685 8.75326 150.685 8.95117C150.685 10.349 150.647 11.7096 150.573 13.0332C150.499 14.3444 150.4 15.5195 150.276 16.5586C150.165 17.5977 150.035 18.4326 149.887 19.0635C149.738 19.6943 149.596 20.0098 149.46 20.0098C149.213 20.0098 148.619 19.9727 147.679 19.8984C146.739 19.8242 145.273 19.7871 143.281 19.7871C143.232 20.2201 143.201 20.6777 143.188 21.1602C143.188 21.6426 143.188 22.1003 143.188 22.5332C144.203 22.5332 145.229 22.4837 146.269 22.3848C147.308 22.2734 148.118 22.2178 148.699 22.2178C149.132 22.2178 149.423 22.2611 149.571 22.3477C149.732 22.4342 149.812 22.5703 149.812 22.7559C149.714 23.3372 149.59 23.8815 149.441 24.3887C149.305 24.8958 149.138 25.4401 148.94 26.0215C148.817 26.306 147.66 26.4421 145.471 26.4297C145.112 26.4297 144.735 26.4297 144.339 26.4297C143.955 26.4297 143.547 26.4173 143.114 26.3926C143.065 26.7513 143.028 27.2028 143.003 27.7471C142.978 28.2913 142.966 28.8171 142.966 29.3242C143.906 29.3984 144.883 29.4355 145.897 29.4355C146.429 29.4355 146.967 29.417 147.512 29.3799C148.056 29.3428 148.594 29.3242 149.126 29.3242C149.324 29.3242 149.423 29.5036 149.423 29.8623C149.423 30.7529 149.41 31.5137 149.386 32.1445C149.361 32.7754 149.312 33.4186 149.237 34.0742C149.213 34.1732 149.083 34.266 148.848 34.3525C148.625 34.4515 148.217 34.5381 147.623 34.6123C147.029 34.6865 146.225 34.7422 145.211 34.7793C144.197 34.8164 142.892 34.835 141.296 34.835C139.849 34.835 138.661 34.8288 137.733 34.8164C136.818 34.804 136.094 34.7669 135.562 34.7051C135.031 34.6432 134.653 34.5319 134.431 34.3711C134.22 34.2227 134.103 34.0124 134.078 33.7402C133.93 32.7754 133.781 31.5508 133.633 30.0664C133.497 28.582 133.373 27.0049 133.262 25.335C133.15 23.665 133.039 21.9704 132.928 20.251C132.829 18.5192 132.742 16.9421 132.668 15.5195C132.594 14.0846 132.538 12.8662 132.501 11.8643C132.464 10.8623 132.445 10.25 132.445 10.0273Z" fill="#393186"/>
<path d="M153.486 24.2402C153.486 22.5208 153.499 20.8942 153.523 19.3604C153.548 17.8265 153.561 16.2988 153.561 14.7773C153.561 13.5898 153.561 12.6436 153.561 11.9385C153.561 11.221 153.567 10.6644 153.579 10.2686C153.591 9.87272 153.604 9.58822 153.616 9.41504C153.629 9.22949 153.66 9.07487 153.709 8.95117C153.734 8.87695 153.777 8.80892 153.839 8.74707C153.913 8.68522 154.062 8.64193 154.284 8.61719C154.519 8.59245 154.866 8.57389 155.323 8.56152C155.793 8.54915 156.437 8.54297 157.253 8.54297C157.785 8.54297 158.199 8.54297 158.496 8.54297C158.805 8.54297 159.04 8.54915 159.201 8.56152C159.374 8.57389 159.492 8.59245 159.554 8.61719C159.616 8.64193 159.671 8.66667 159.721 8.69141C159.82 8.76562 159.882 8.88314 159.906 9.04395C159.931 9.19238 159.943 9.43978 159.943 9.78613C159.943 11.0479 159.925 12.3405 159.888 13.6641C159.851 14.9876 159.832 16.2926 159.832 17.5791C160.215 16.9235 160.642 16.2246 161.112 15.4824C161.582 14.7279 162.09 13.9733 162.634 13.2188C163.178 12.4518 163.747 11.7158 164.341 11.0107C164.935 10.3057 165.535 9.66243 166.141 9.08105C166.339 8.88314 166.586 8.74089 166.883 8.6543C167.18 8.55534 167.631 8.50586 168.237 8.50586C168.646 8.50586 169.184 8.51823 169.852 8.54297C170.52 8.56771 171.373 8.60482 172.412 8.6543C172.919 8.70378 173.259 8.79655 173.433 8.93262C173.618 9.05632 173.711 9.34082 173.711 9.78613C173.711 11.1592 173.711 12.6064 173.711 14.1279C173.711 15.6494 173.705 17.1709 173.692 18.6924C173.68 20.2139 173.668 21.6982 173.655 23.1455C173.643 24.5804 173.631 25.9102 173.618 27.1348C173.606 28.347 173.6 29.4108 173.6 30.3262C173.6 31.2292 173.6 31.9095 173.6 32.3672C173.6 32.8249 173.581 33.264 173.544 33.6846C173.519 34.0928 173.433 34.3649 173.284 34.501C173.21 34.5752 173.117 34.6432 173.006 34.7051C172.895 34.7669 172.721 34.8102 172.486 34.835C172.264 34.8597 171.961 34.8783 171.577 34.8906C171.194 34.903 170.711 34.9092 170.13 34.9092C169.524 34.9092 169.041 34.8906 168.683 34.8535C168.336 34.8164 168.07 34.7546 167.885 34.668C167.712 34.5814 167.6 34.4515 167.551 34.2783C167.501 34.1175 167.477 33.9134 167.477 33.666C167.477 33.1836 167.489 32.7012 167.514 32.2188C167.538 31.7363 167.569 31.2044 167.606 30.623C167.644 30.0417 167.674 29.3923 167.699 28.6748C167.724 27.945 167.749 27.11 167.773 26.1699C166.833 27.3079 165.906 28.5016 164.99 29.751C164.087 30.988 163.32 32.1136 162.689 33.1279C162.405 33.5856 162.151 33.932 161.929 34.167C161.718 34.4144 161.44 34.5938 161.094 34.7051C160.76 34.8164 160.302 34.8844 159.721 34.9092C159.139 34.9339 158.354 34.9463 157.364 34.9463C156.634 34.9463 156.065 34.9401 155.657 34.9277C155.249 34.9154 154.927 34.8906 154.692 34.8535C154.47 34.8164 154.315 34.7855 154.229 34.7607C154.142 34.736 154.062 34.6989 153.987 34.6494C153.888 34.5752 153.808 34.4391 153.746 34.2412C153.697 34.0557 153.647 33.6722 153.598 33.0908C153.548 32.7074 153.517 31.7487 153.505 30.2148C153.493 28.681 153.486 26.6895 153.486 24.2402ZM158.7 1.3623C158.7 1.18913 158.818 1.04069 159.053 0.916992C159.3 0.780924 159.597 0.688151 159.943 0.638672C160.302 0.589193 160.673 0.552083 161.057 0.527344C161.452 0.502604 161.793 0.490234 162.077 0.490234C162.201 0.490234 162.325 0.545898 162.448 0.657227C162.584 0.768555 162.665 0.904622 162.689 1.06543C162.739 1.57259 162.869 2.05501 163.079 2.5127C163.302 2.95801 163.667 3.18066 164.174 3.18066C164.681 3.18066 165.04 3.00749 165.25 2.66113C165.46 2.30241 165.59 1.8571 165.64 1.3252C165.664 1.2015 165.739 1.09635 165.862 1.00977C165.998 0.910807 166.128 0.836589 166.252 0.787109C166.635 0.712891 167.007 0.651042 167.365 0.601562C167.736 0.552083 168.138 0.527344 168.571 0.527344C168.769 0.527344 169.004 0.552083 169.276 0.601562C169.549 0.651042 169.685 0.818034 169.685 1.10254C169.685 2.0179 169.524 2.82812 169.202 3.5332C168.881 4.23828 168.466 4.83203 167.959 5.31445C167.452 5.79688 166.864 6.16178 166.196 6.40918C165.528 6.64421 164.854 6.76172 164.174 6.76172C163.493 6.76172 162.819 6.65658 162.151 6.44629C161.496 6.22363 160.914 5.88965 160.407 5.44434C159.9 4.99902 159.486 4.4362 159.164 3.75586C158.855 3.07552 158.7 2.27767 158.7 1.3623Z" fill="#7D71B1"/>
<path d="M188.276 8.98828C188.276 8.83984 188.456 8.72233 188.814 8.63574C189.173 8.54915 189.755 8.4873 190.559 8.4502C191.375 8.41309 192.439 8.38835 193.75 8.37598C195.074 8.36361 196.682 8.35742 198.574 8.35742C198.797 8.35742 198.914 8.46875 198.927 8.69141C198.927 8.97591 198.921 9.23568 198.908 9.4707C198.896 9.70573 198.89 9.94076 198.89 10.1758C198.89 11.7715 198.921 13.3796 198.982 15C199.044 16.6204 199.137 18.1914 199.261 19.7129C199.991 18.0182 200.733 16.237 201.487 14.3691C202.242 12.4889 202.922 10.5592 203.528 8.58008C203.553 8.43164 203.664 8.35742 203.862 8.35742C204.196 8.35742 204.642 8.36979 205.198 8.39453C205.755 8.41927 206.355 8.4502 206.998 8.4873C207.641 8.52441 208.285 8.57389 208.928 8.63574C209.583 8.69759 210.177 8.76562 210.709 8.83984C211.241 8.91406 211.674 9.00065 212.008 9.09961C212.354 9.1862 212.527 9.27897 212.527 9.37793C212.527 9.57585 212.478 9.81706 212.379 10.1016C211.971 11.2891 211.562 12.39 211.154 13.4043C210.758 14.4186 210.319 15.3835 209.837 16.2988C209.354 17.2018 208.835 18.0801 208.278 18.9336C207.722 19.7871 207.097 20.653 206.404 21.5312C207.443 23.5104 208.414 25.5267 209.317 27.5801C210.22 29.6335 211.024 31.8353 211.729 34.1855C211.729 34.4701 211.396 34.6989 210.728 34.8721C210.06 35.0452 209.256 35.1813 208.315 35.2803C207.375 35.3916 206.41 35.4658 205.421 35.5029C204.431 35.54 203.621 35.5586 202.99 35.5586C202.817 35.5586 202.706 35.4967 202.656 35.373C202.223 33.901 201.729 32.4167 201.172 30.9199C200.615 29.4232 200.003 27.9945 199.335 26.6338C199.31 27.141 199.298 27.6234 199.298 28.0811C199.298 28.5264 199.298 29.0026 199.298 29.5098C199.298 31.0065 199.341 32.5156 199.428 34.0371C199.428 34.1855 199.366 34.3092 199.242 34.4082C199.131 34.5195 198.914 34.5938 198.593 34.6309C198.284 34.668 197.832 34.6927 197.238 34.7051C196.645 34.7174 195.853 34.7236 194.863 34.7236C193.849 34.7236 192.971 34.7236 192.229 34.7236C191.499 34.7236 190.88 34.6989 190.373 34.6494C190.175 34.6247 190.014 34.5257 189.891 34.3525C189.779 34.1917 189.687 33.8639 189.612 33.3691C189.538 32.8743 189.47 32.1878 189.408 31.3096C189.346 30.4189 189.278 29.25 189.204 27.8027C189.08 25.6504 188.957 23.665 188.833 21.8467C188.722 20.016 188.629 18.3275 188.555 16.7812C188.48 15.235 188.412 13.8249 188.351 12.5508C188.301 11.2643 188.276 10.0768 188.276 8.98828Z" fill="#E4097F"/>
<path d="M212.861 34.2598C212.861 34.1608 212.886 34.0371 212.936 33.8887C213.95 29.7077 214.995 25.57 216.071 21.4756C217.147 17.3812 218.335 13.2992 219.634 9.22949C219.683 9.10579 219.77 9.00684 219.894 8.93262C220.017 8.84603 220.246 8.78418 220.58 8.74707C220.914 8.70996 221.366 8.68522 221.935 8.67285C222.504 8.66048 223.258 8.6543 224.198 8.6543C225.509 8.6543 226.586 8.66667 227.427 8.69141C228.28 8.71615 228.954 8.75326 229.449 8.80273C229.944 8.85221 230.284 8.92643 230.47 9.02539C230.668 9.11198 230.779 9.20475 230.804 9.30371C231.793 13.6084 232.709 17.8512 233.55 22.0322C234.403 26.2132 235.238 30.4313 236.055 34.6865V34.7979C236.055 34.971 235.95 35.0576 235.739 35.0576C234.292 35.0576 232.851 35.0452 231.416 35.0205C229.993 34.9958 228.559 34.9215 227.111 34.7979C226.988 34.7731 226.889 34.7298 226.814 34.668C226.74 34.6061 226.691 34.4329 226.666 34.1484L226.425 31.6807C226.066 32.0146 225.633 32.3177 225.126 32.5898C224.631 32.8496 224.322 32.9795 224.198 32.9795C223.976 32.9795 223.753 32.8001 223.53 32.4414C223.308 32.0827 223.159 31.7796 223.085 31.5322L222.751 33.7402C222.701 33.9382 222.633 34.099 222.547 34.2227C222.473 34.3587 222.299 34.4577 222.027 34.5195C221.768 34.5814 221.359 34.6247 220.803 34.6494C220.246 34.6742 219.473 34.6865 218.483 34.6865C216.43 34.6865 214.977 34.6618 214.123 34.6123C213.282 34.5628 212.861 34.4453 212.861 34.2598ZM223.048 27.9141C223.753 27.4069 224.254 27.0667 224.551 26.8936C224.848 26.7204 225.095 26.6338 225.293 26.6338C225.441 26.6338 225.602 26.6956 225.775 26.8193C225.961 26.943 226.245 27.2585 226.629 27.7656C226.382 26.5534 226.128 25.3535 225.868 24.166C225.608 22.9661 225.305 21.7601 224.959 20.5479C224.526 21.7601 224.161 22.9785 223.864 24.2031C223.58 25.4154 223.308 26.6523 223.048 27.9141Z" fill="#AFCB1F"/>
</svg>
